[gd_scene load_steps=4 format=2]

[ext_resource path="res://assets/meshlibrary/blocks/blue-wall-block.mesh" type="ArrayMesh" id=1]
[ext_resource path="res://assets/meshlibrary/blocks/purple-wall-block.mesh" type="ArrayMesh" id=2]

[sub_resource type="BoxShape" id=1]
extents = Vector3( 0.5, 0.5, 0.5 )

[node name="wall blocks mesh library" type="Spatial"]

[node name="blue-block" type="MeshInstance" parent="."]
mesh = ExtResource( 1 )
material/0 = null

[node name="StaticBody" type="StaticBody" parent="blue-block"]

[node name="CollisionShape" type="CollisionShape" parent="blue-block/StaticBody"]
shape = SubResource( 1 )

[node name="purple-block" type="MeshInstance" parent="."]
transform = Transform( 1, 0, 0, 0, 1, 0, 0, 0, 1, 3.1777, 0, 0 )
mesh = ExtResource( 2 )
material/0 = null

[node name="StaticBody" type="StaticBody" parent="purple-block"]

[node name="CollisionShape" type="CollisionShape" parent="purple-block/StaticBody"]
shape = SubResource( 1 )
