[gd_scene load_steps=4 format=2]

[ext_resource path="res://assets/meshlibrary/blocks/purple-wall-block.mesh" type="ArrayMesh" id=1]
[ext_resource path="res://assets/meshlibrary/blocks/blue-wall-block.mesh" type="ArrayMesh" id=2]

[sub_resource type="BoxShape" id=1]
extents = Vector3( 0.5, 0.5, 0.5 )

[node name="block" type="Spatial"]

[node name="block1" type="MeshInstance" parent="."]
mesh = ExtResource( 2 )
material/0 = null

[node name="StaticBody" type="StaticBody" parent="block1"]

[node name="CollisionShape" type="CollisionShape" parent="block1/StaticBody"]
shape = SubResource( 1 )

[node name="block2" type="MeshInstance" parent="."]
transform = Transform( 1, 0, 0, 0, 1, 0, 0, 0, 1, 0, 0, -2 )
mesh = ExtResource( 1 )
material/0 = null

[node name="StaticBody" type="StaticBody" parent="block2"]

[node name="CollisionShape" type="CollisionShape" parent="block2/StaticBody"]
shape = SubResource( 1 )
